\relax 
\providecommand\hyper@newdestlabel[2]{}
\providecommand\HyperFirstAtBeginDocument{\AtBeginDocument}
\HyperFirstAtBeginDocument{\ifx\hyper@anchor\@undefined
\global\let\oldcontentsline\contentsline
\gdef\contentsline#1#2#3#4{\oldcontentsline{#1}{#2}{#3}}
\global\let\oldnewlabel\newlabel
\gdef\newlabel#1#2{\newlabelxx{#1}#2}
\gdef\newlabelxx#1#2#3#4#5#6{\oldnewlabel{#1}{{#2}{#3}}}
\AtEndDocument{\ifx\hyper@anchor\@undefined
\let\contentsline\oldcontentsline
\let\newlabel\oldnewlabel
\fi}
\fi}
\global\let\hyper@last\relax 
\gdef\HyperFirstAtBeginDocument#1{#1}
\providecommand*\HyPL@Entry[1]{}
\gdef\pagesLTS@loaded{p@gesLTSnotlo@ded}
\newlabel{pagesLTS.0}{{}{1}{}{page.1}{}}
\newlabel{pagesLTS.0.local}{{}{1}{}{page.1}{}}
\HyPL@Entry{0<</S/D>>}
\reset@newl@bel
\@writefile{toc}{\contentsline {section}{\numberline {0.1}概要}{1}{section.0.1}}
\newlabel{thumbs.1}{{0.1}{1}{概要}{section*.1}{}}
\@writefile{tmb}{\thumbcontents{概要}{\fontsize  {12\jsc@mpt }{17\jsc@mpt }\selectfont  \parindent =1zw \kanjiskip =0zw plus .1zw minus .01zw \xkanjiskip =0.25em plus 0.15em minus 0.06em {\textbf  {\unhbox \voidb@x \let \reserved@d =[\def \dimen@ \prevdepth \hrule height\z@ \penalty \@M \vskip \def  \vskip \z@skip \prevdepth \dimen@ \vskip \edef {\vskip }\setbox \z@ \hbox {{\z@skip }}\Grot@x \z@ \Grot@y \z@ \begingroup {}{}\edef {0 }\edef {1 }\Grot@r \wd \z@ \advance \Grot@r -\Grot@x \Grot@l \z@ \advance \Grot@l -\Grot@x \Grot@h \ht \z@ \advance \Grot@h -\Grot@y \Grot@d -\dp \z@ \advance \Grot@d -\Grot@y \Grot@height \Grot@r \advance \Grot@height \Grot@h \Grot@right \Grot@r \advance \Grot@right -\Grot@d \Grot@left \Grot@l \advance \Grot@left -\Grot@h \Grot@depth \Grot@l \advance \Grot@depth \Grot@d \advance \Grot@height \Grot@y \advance \Grot@depth \Grot@y \dimen@ \Grot@x \advance \dimen@ -\Grot@y \dimen@ii \Grot@x \advance \dimen@ii \Grot@y \dimen@ -\dimen@ \advance \dimen@ -\Grot@left \dimen@ii -\dimen@ii \advance \dimen@ii \Grot@y \setbox \z@ \hbox {\kern \dimen@ \raise \dimen@ii \hbox {\special {pdf:btrans rotate }\box \z@ \special {pdf:etrans}}}\ht \z@ \Grot@height \dp \z@ -\Grot@depth \advance \Grot@right -\Grot@left \wd \z@ \Grot@right \unhbox \voidb@x \box \z@ \endgroup \futurelet \GenericError  {               }{LaTeX Error: No counter '\let ' defined}{See the LaTeX manual or LaTeX Companion for explanation.}{Your command was ignored.\MessageBreak Type  I <command> <return>  to replace it with another command,\MessageBreak or  <return>  to continue without it.}\vskip \vskip  \vskip \z@skip \z@skip \vskip 90 \vskip \z@skip {Abstract}}}}{white}{red}{1}{thumbs.1}{0}}
\@writefile{toc}{\contentsline {section}{\numberline {0.2}執筆}{2}{section.0.2}}
\newlabel{Writing}{{0.2}{2}{執筆}{section.0.2}{}}
\newlabel{thumbs.2}{{0.2}{2}{執筆}{section*.2}{}}
\@writefile{tmb}{\thumbcontents{執筆}{\fontsize  {12\jsc@mpt }{17\jsc@mpt }\selectfont  \parindent =1zw \kanjiskip =0zw plus .1zw minus .01zw \xkanjiskip =0.25em plus 0.15em minus 0.06em {\textbf  {\unhbox \voidb@x \let \reserved@d =[\def \dimen@ \prevdepth \hrule height\z@ \penalty \@M \vskip \def  \vskip \z@skip \prevdepth \dimen@ \vskip \edef {\vskip }\setbox \z@ \hbox {{\z@skip }}\Grot@x \z@ \Grot@y \z@ \begingroup {}{}\edef {0 }\edef {1 }\Grot@r \wd \z@ \advance \Grot@r -\Grot@x \Grot@l \z@ \advance \Grot@l -\Grot@x \Grot@h \ht \z@ \advance \Grot@h -\Grot@y \Grot@d -\dp \z@ \advance \Grot@d -\Grot@y \Grot@height \Grot@r \advance \Grot@height \Grot@h \Grot@right \Grot@r \advance \Grot@right -\Grot@d \Grot@left \Grot@l \advance \Grot@left -\Grot@h \Grot@depth \Grot@l \advance \Grot@depth \Grot@d \advance \Grot@height \Grot@y \advance \Grot@depth \Grot@y \dimen@ \Grot@x \advance \dimen@ -\Grot@y \dimen@ii \Grot@x \advance \dimen@ii \Grot@y \dimen@ -\dimen@ \advance \dimen@ -\Grot@left \dimen@ii -\dimen@ii \advance \dimen@ii \Grot@y \setbox \z@ \hbox {\kern \dimen@ \raise \dimen@ii \hbox {\special {pdf:btrans rotate }\box \z@ \special {pdf:etrans}}}\ht \z@ \Grot@height \dp \z@ -\Grot@depth \advance \Grot@right -\Grot@left \wd \z@ \Grot@right \unhbox \voidb@x \box \z@ \endgroup \futurelet \@let@token \let \vskip \vskip \vskip  \vskip \z@skip \z@skip \vskip 90 \vskip \z@skip {Writing}}}}{white}{cyan}{2}{thumbs.2}{0}}
\@writefile{toc}{\contentsline {subsection}{\numberline {0.2.1}卒業文集}{2}{subsection.0.2.1}}
\newlabel{Essays}{{0.2.1}{2}{卒業文集}{subsection.0.2.1}{}}
\newlabel{thumbs.3}{{0.2.1}{2}{卒業文集}{section*.3}{}}
\@writefile{tmb}{\thumbcontents{卒業文集}{\fontsize  {12\jsc@mpt }{17\jsc@mpt }\selectfont  \parindent =1zw \kanjiskip =0zw plus .1zw minus .01zw \xkanjiskip =0.25em plus 0.15em minus 0.06em {\textbf  {\unhbox \voidb@x \let \reserved@d =[\def \dimen@ \prevdepth \hrule height\z@ \penalty \@M \vskip \def  \vskip \z@skip \prevdepth \dimen@ \vskip \edef {\vskip }\setbox \z@ \hbox {{\z@skip }}\Grot@x \z@ \Grot@y \z@ \begingroup {}{}\edef {0 }\edef {1 }\Grot@r \wd \z@ \advance \Grot@r -\Grot@x \Grot@l \z@ \advance \Grot@l -\Grot@x \Grot@h \ht \z@ \advance \Grot@h -\Grot@y \Grot@d -\dp \z@ \advance \Grot@d -\Grot@y \Grot@height \Grot@r \advance \Grot@height \Grot@h \Grot@right \Grot@r \advance \Grot@right -\Grot@d \Grot@left \Grot@l \advance \Grot@left -\Grot@h \Grot@depth \Grot@l \advance \Grot@depth \Grot@d \advance \Grot@height \Grot@y \advance \Grot@depth \Grot@y \dimen@ \Grot@x \advance \dimen@ -\Grot@y \dimen@ii \Grot@x \advance \dimen@ii \Grot@y \dimen@ -\dimen@ \advance \dimen@ -\Grot@left \dimen@ii -\dimen@ii \advance \dimen@ii \Grot@y \setbox \z@ \hbox {\kern \dimen@ \raise \dimen@ii \hbox {\special {pdf:btrans rotate }\box \z@ \special {pdf:etrans}}}\ht \z@ \Grot@height \dp \z@ -\Grot@depth \advance \Grot@right -\Grot@left \wd \z@ \Grot@right \unhbox \voidb@x \box \z@ \endgroup \futurelet \@let@token \let \vskip \vskip \vskip  \vskip \z@skip \z@skip \vskip 90 \vskip \z@skip {Essays}}}}{white}{magenta}{2}{thumbs.3}{0}}
\@writefile{lol}{\contentsline {lstlisting}{\numberline {1}\textbf  {3801.txt の例}}{3}{lstlisting.0.1}}
\@writefile{toc}{\contentsline {subsection}{\numberline {0.2.2}Y2b}{3}{subsection.0.2.2}}
\newlabel{Y2b Part}{{0.2.2}{3}{Y2b}{subsection.0.2.2}{}}
\newlabel{thumbs.4}{{0.2.2}{3}{Y2b}{section*.4}{}}
\@writefile{tmb}{\thumbcontents{Y2b}{\fontsize  {12\jsc@mpt }{17\jsc@mpt }\selectfont  \parindent =1zw \kanjiskip =0zw plus .1zw minus .01zw \xkanjiskip =0.25em plus 0.15em minus 0.06em {\textbf  {\unhbox \voidb@x \let \reserved@d =[\def \dimen@ \prevdepth \hrule height\z@ \penalty \@M \vskip \def  \vskip \z@skip \prevdepth \dimen@ \vskip \edef {\vskip }\setbox \z@ \hbox {{\z@skip }}\Grot@x \z@ \Grot@y \z@ \begingroup {}{}\edef {0 }\edef {1 }\Grot@r \wd \z@ \advance \Grot@r -\Grot@x \Grot@l \z@ \advance \Grot@l -\Grot@x \Grot@h \ht \z@ \advance \Grot@h -\Grot@y \Grot@d -\dp \z@ \advance \Grot@d -\Grot@y \Grot@height \Grot@r \advance \Grot@height \Grot@h \Grot@right \Grot@r \advance \Grot@right -\Grot@d \Grot@left \Grot@l \advance \Grot@left -\Grot@h \Grot@depth \Grot@l \advance \Grot@depth \Grot@d \advance \Grot@height \Grot@y \advance \Grot@depth \Grot@y \dimen@ \Grot@x \advance \dimen@ -\Grot@y \dimen@ii \Grot@x \advance \dimen@ii \Grot@y \dimen@ -\dimen@ \advance \dimen@ -\Grot@left \dimen@ii -\dimen@ii \advance \dimen@ii \Grot@y \setbox \z@ \hbox {\kern \dimen@ \raise \dimen@ii \hbox {\special {pdf:btrans rotate }\box \z@ \special {pdf:etrans}}}\ht \z@ \Grot@height \dp \z@ -\Grot@depth \advance \Grot@right -\Grot@left \wd \z@ \Grot@right \unhbox \voidb@x \box \z@ \endgroup \futurelet \@let@token \let \vskip \vskip \vskip  \vskip \z@skip \z@skip \vskip 90 \vskip \z@skip {Y2b Part}}}}{Black}{green}{3}{thumbs.4}{0}}
\@writefile{toc}{\contentsline {subsubsection}{表紙の作成方法}{4}{section*.4}}
\@writefile{toc}{\contentsline {section}{\numberline {0.3}提出}{5}{section.0.3}}
\newlabel{Submit}{{0.3}{5}{提出}{section.0.3}{}}
\newlabel{thumbs.5}{{0.3}{5}{提出}{section*.5}{}}
\@writefile{tmb}{\thumbcontents{提出}{\fontsize  {12\jsc@mpt }{17\jsc@mpt }\selectfont  \parindent =1zw \kanjiskip =0zw plus .1zw minus .01zw \xkanjiskip =0.25em plus 0.15em minus 0.06em {\textbf  {\unhbox \voidb@x \let \reserved@d =[\def \dimen@ \prevdepth \hrule height\z@ \penalty \@M \vskip \def  \vskip \z@skip \prevdepth \dimen@ \vskip \edef {\vskip }\setbox \z@ \hbox {{\z@skip }}\Grot@x \z@ \Grot@y \z@ \begingroup {}{}\edef {0 }\edef {1 }\Grot@r \wd \z@ \advance \Grot@r -\Grot@x \Grot@l \z@ \advance \Grot@l -\Grot@x \Grot@h \ht \z@ \advance \Grot@h -\Grot@y \Grot@d -\dp \z@ \advance \Grot@d -\Grot@y \Grot@height \Grot@r \advance \Grot@height \Grot@h \Grot@right \Grot@r \advance \Grot@right -\Grot@d \Grot@left \Grot@l \advance \Grot@left -\Grot@h \Grot@depth \Grot@l \advance \Grot@depth \Grot@d \advance \Grot@height \Grot@y \advance \Grot@depth \Grot@y \dimen@ \Grot@x \advance \dimen@ -\Grot@y \dimen@ii \Grot@x \advance \dimen@ii \Grot@y \dimen@ -\dimen@ \advance \dimen@ -\Grot@left \dimen@ii -\dimen@ii \advance \dimen@ii \Grot@y \setbox \z@ \hbox {\kern \dimen@ \raise \dimen@ii \hbox {\special {pdf:btrans rotate }\box \z@ \special {pdf:etrans}}}\ht \z@ \Grot@height \dp \z@ -\Grot@depth \advance \Grot@right -\Grot@left \wd \z@ \Grot@right \unhbox \voidb@x \box \z@ \endgroup \futurelet \@let@token \let \vskip \vskip \vskip  \vskip \z@skip \z@skip \vskip 90 \vskip \z@skip {Submit}}}}{black}{yellow}{5}{thumbs.5}{0}}
\@writefile{toc}{\contentsline {section}{\numberline {0.4}質問}{6}{section.0.4}}
\newlabel{Questions}{{0.4}{6}{質問}{section.0.4}{}}
\newlabel{thumbs.6}{{0.4}{6}{質問}{section*.6}{}}
\@writefile{tmb}{\thumbcontents{質問}{\fontsize  {12\jsc@mpt }{17\jsc@mpt }\selectfont  \parindent =1zw \kanjiskip =0zw plus .1zw minus .01zw \xkanjiskip =0.25em plus 0.15em minus 0.06em {\textbf  {\unhbox \voidb@x \let \reserved@d =[\def \dimen@ \prevdepth \hrule height\z@ \penalty \@M \vskip \def  \vskip \z@skip \prevdepth \dimen@ \vskip \edef {\vskip }\setbox \z@ \hbox {{\z@skip }}\Grot@x \z@ \Grot@y \z@ \begingroup {}{}\edef {0 }\edef {1 }\Grot@r \wd \z@ \advance \Grot@r -\Grot@x \Grot@l \z@ \advance \Grot@l -\Grot@x \Grot@h \ht \z@ \advance \Grot@h -\Grot@y \Grot@d -\dp \z@ \advance \Grot@d -\Grot@y \Grot@height \Grot@r \advance \Grot@height \Grot@h \Grot@right \Grot@r \advance \Grot@right -\Grot@d \Grot@left \Grot@l \advance \Grot@left -\Grot@h \Grot@depth \Grot@l \advance \Grot@depth \Grot@d \advance \Grot@height \Grot@y \advance \Grot@depth \Grot@y \dimen@ \Grot@x \advance \dimen@ -\Grot@y \dimen@ii \Grot@x \advance \dimen@ii \Grot@y \dimen@ -\dimen@ \advance \dimen@ -\Grot@left \dimen@ii -\dimen@ii \advance \dimen@ii \Grot@y \setbox \z@ \hbox {\kern \dimen@ \raise \dimen@ii \hbox {\special {pdf:btrans rotate }\box \z@ \special {pdf:etrans}}}\ht \z@ \Grot@height \dp \z@ -\Grot@depth \advance \Grot@right -\Grot@left \wd \z@ \Grot@right \unhbox \voidb@x \box \z@ \endgroup \futurelet \@let@token \let \vskip \vskip \vskip  \vskip \z@skip \z@skip \vskip 90 \vskip \z@skip {Questions}}}}{white}{gray}{6}{thumbs.6}{0}}
\newlabel{LastPage}{{}{6}{}{page.6}{}}
\pagesLTS@ifcounter{pagesLTS.arabic.1.local.cnt}
\setcounter{pagesLTS.arabic.1.local.cnt}{6}
\gdef\pagesLTS.lastpage{6}
\setcounter{pagesLTS.pagenr}{6}
\newlabel{VeryLastPage}{{}{6}{}{page.6}{}}
\newlabel{pagesLTS.arabic.1}{{}{6}{}{page.6}{}}
\newlabel{pagesLTS.arabic.1.local}{{}{6}{}{page.6}{}}
\newlabel{pagesLTS.arabic}{{}{6}{}{page.6}{}}
\newlabel{pagesLTS.arabic.local}{{}{6}{}{page.6}{}}
\newlabel{LastPages}{{}{6}{}{page.6}{}}
\gdef\th@mbmaxwidtha{15.66663pt}
\gdef\th@umbsperpage{6}
\gdef\th@mbsmax{6}
